{
    "name": "web",
    "default_attributes": {
    	"meygam_tomcat": {
            "port": "8081"
        }
    },
    "override_attributes": {},
    "description": "This install apache2",
    "json_class": "Chef::Role",
    "chef_type": "role",
    "run_list": [
        "recipe[meygam_java::default]",
        "recipe[meygam_tomcat::default]",
        "recipe[meygam_stargate::default]"
    ]
}